0.0,-20.0,0.0,10.0
0.05025125628140704,-19.99747481124214,4.972419807260582,9.798664152351348
0.10050251256281408,-19.989899244968562,9.632580085926186,9.202763834115077
0.15075376884422112,-19.977273301179263,13.68783067607501,8.236294264428421
0.20100502512562815,-19.959596979874245,16.8835087200446,6.938172437299283
0.2512562814070352,-19.93687028105351,19.01893105787847,5.360670044410912
0.30150753768844224,-19.909093204717053,19.95999678932891,3.5673086420513025
0.35175879396984927,-19.876265750864878,19.647608582901398,1.6303018178373405
0.4020100502512563,-19.83838791949698,18.101383888018702,-0.37235264606010476
0.45226130653266333,-19.79545971061337,15.418422992476508,-2.360013522833804
0.5025125628140704,-19.747481124214033,11.76721128909251,-4.252643334991101
0.5527638190954774,-19.694452160298983,7.377038678859044,-5.974031237028832
0.6030150753768845,-19.63637281886821,2.5236005541322437,-7.454861810469219
0.6532663316582915,-19.57324309992172,-2.488315404313407,-8.63550619956673
0.7035175879396985,-19.505063003459508,-7.343969376590477,-9.468423196551253
0.7537688442211056,-19.43183252948158,-11.738434530457326,-9.920073591501016
0.8040201005025126,-19.35355167798793,-15.395745909099608,-9.972270701394407
0.8542713567839196,-19.270220448978563,-18.086230562266334,-9.62291269635839
0.9045226130653267,-19.181838842453473,-19.640930617924447,-8.886067234408316
0.9547738693467337,-19.088406858412668,-19.962213549999305,-7.791404996677741
1.0050251256281408,-18.98992449685614,-19.029903335386663,-6.383004933071153
1.0552763819095479,-18.886391757783894,-16.902547473976647,-4.717579327715488
1.105527638190955,-18.77780864119593,-13.713740304981659,-2.8621901558007536
1.155778894472362,-18.664175147092244,-9.663733509065649,-0.8915486876560642
1.206030150753769,-18.54549127547284,-5.00686064250892,1.1149929226384798
1.256281407035176,-18.42175702633772,-0.035565421329661326,3.076636923892691
1.306532663316583,-18.292972399686874,4.93796324797529,4.914393464551088
1.35678391959799,-18.159137395520315,9.601396202155664,6.554261290436607
1.407035175879397,-18.020252013838036,13.661877762819152,7.930207565797969
1.4572864321608041,-17.876316254640034,16.864416576228894,8.986826828701393
1.5075376884422111,-17.727330117926314,19.00789863774629,9.681572012159172
1.5577889447236182,-17.573293603696875,19.957716910148967,9.986467694089045
1.6080402010050252,-17.414206711951717,19.654224417218565,9.889236588377862
1.6582914572864322,-17.25006944269084,18.116479972661082,9.393793916442858
1.7085427135678393,-17.080881795914244,15.441051318937813,8.520089752347099
1.7587939698492463,-16.90664377162193,11.79595083685808,7.303305689785064
1.8090452261306533,-16.727355369813893,7.410084653083457,5.79243817888501
1.8592964824120604,-16.54301659049014,2.5588777236940112,4.048325577845311
1.9095477386934674,-16.353627433650665,-2.453022385817982,2.141198364450973
1.9597989949748744,-16.15918789929547,-7.310876850851173,0.14785115351850686
2.0100502512562817,-15.959697987424558,-11.709620651951857,-1.8514496048778641
2.0603015075376887,-15.755157698037927,-15.373020140517731,-3.7761977281588575
2.1105527638190957,-15.545567031135576,-18.071020043322584,-5.548889057342297
2.1608040201005028,-15.330925986717507,-19.634190543405104,-7.098142330152068
2.21105527638191,-15.111234564783716,-19.964367185150202,-8.361573502407452
2.261306532663317,-14.886492765334207,-19.040815435573787,-9.288307776906095
2.311557788944724,-14.65670058836898,-16.921532777819735,-9.84102818750775
2.361809045226131,-14.421858033888032,-13.739606567606353,-9.997478247736177
2.412060301507538,-14.181965101891365,-9.69485637305913,-9.75135815649322
2.462311557788945,-13.937021792378978,-5.041285644809744,-9.112578473217635
2.512562814070352,-13.687028105350873,-0.07113073019255177,-8.106861047708025
2.562814070351759,-13.431984040807048,4.903491073613337,-6.774703274036389
2.613065326633166,-13.171889598747505,9.570181956365339,-5.169747375115512
2.663316582914573,-12.906744779172243,13.635881647283718,-3.356620382214981
2.71356783919598,-12.636549582081258,16.845271102903677,-1.4083317873368515
2.763819095477387,-12.361304007474558,18.99680610987742,0.5966663423760786
2.814070351758794,-12.081008055352136,19.95537391966903,2.577638407327867
2.864321608040201,-11.795661725713996,19.660778099955017,4.454816269545441
2.9145728643216082,-11.505265018560136,18.131518768455862,6.152611289813428
2.9648241206030153,-11.209817933890557,15.463630816927086,7.602658068223965
3.0150753768844223,-10.909320471705259,11.82465308287238,8.746567325324758
3.0653266331658293,-10.603772632004242,7.4431071947640834,9.5382770731335
3.1155778894472363,-10.293174414787504,2.5941468014434452,9.945907401016836
3.1658291457286434,-9.977525820055048,-2.4177216102513173,9.95304418945643
3.2160804020100504,-9.656826847806872,-7.277761206288037,9.559400060182284
3.2663316582914574,-9.331077498042978,-11.680769744692785,8.780825948082265
3.3165829145728645,-9.000277770763363,-15.350245758595412,7.648672828919766
3.3668341708542715,-8.66442766596803,-18.0557523792869,6.208529304277713
3.4170854271356785,-8.323527183656978,-19.627388380657177,4.51838587761001
3.4673366834170856,-7.977576323830206,-19.96645768797127,2.646299840807847
3.5175879396984926,-7.626575086487714,-19.051667323933067,0.6676547996893762
3.5678391959798996,-7.270523471629504,-16.940464571537596,-1.3378748104355245
3.6180904522613067,-6.909421479255574,-13.765429382153515,-3.2895319887590624
3.6683417085427137,-6.543269109365925,-9.725948579488334,-5.108729024817769
3.7185929648241207,-6.172066361960555,-5.075694705302638,-6.722212003152684
3.7688442211055277,-5.795813237039468,-0.10669581412229164,-8.065010531141864
3.819095477386935,-5.41450973460266,4.869003393184336,-9.083053912814496
3.869346733668342,-5.028155854650134,9.53893744726247,-9.735348422732145
3.919597989949749,-4.636751597181888,13.60984241167488,-9.995628007280649
3.969849246231156,-4.240296962197924,16.826072360611715,-9.853411944303863
4.020100502512563,-3.838791949698237,18.98565350934919,-9.31442687211952
4.07035175879397,-3.4322365596828313,19.952967825298224,-8.400376194003268
4.120603015075377,-3.02063079215171,19.66726961038637,-7.148066143569577
4.170854271356784,-2.6039746471048666,18.146500227846595,-5.607923701923045
4.2211055276381915,-2.182268124542304,15.486161415042297,-3.8419660458613847
4.2713567839195985,-1.7555112244640227,11.853317936371665,-1.9213032917035575
4.3216080402010055,-1.3237039468700225,7.476106199475334,0.07672490781932545
4.371859296482413,-0.8868462917603033,2.6294076758508607,2.0716636124718946
4.42211055276382,-0.4449382591348652,-2.382413189243316,3.983182287232485
4.472361809045227,0.002020151006291826,-7.244622547620923,5.734309485565267
4.522613065326634,0.45402893866316774,-11.651881899913938,7.254532271706852
4.572864321608041,0.9110881038357661,-15.327422835351028,8.482635577004716
4.623115577889448,1.3731976465240834,-18.04042761843952,9.369167157464414
4.673366834170855,1.840357566728116,-19.62052415119081,9.878428895642111
4.723618090452262,2.312567864447871,-19.96848505185181,9.9899142627916
4.773869346733669,2.789828539683345,-19.06245896614807,9.699134058733792
4.824120603015076,3.272139592434538,-16.959342795263098,9.01779717924137
4.874371859296483,3.75950102270145,-13.791208666964954,7.973339131947713
4.92462311557789,4.251912830484084,-9.757010030031887,6.607817286109886
4.974874371859297,4.749375015782434,-5.110087715177416,4.97621734139079
5.025125628140704,5.251887578596506,-0.1422605606530704,3.144239209369128
5.075376884422111,5.759450518926293,4.834500315747024,1.1856514640617741
5.125628140703518,6.272063836771803,9.507662773650056,-0.8206791097521278
5.175879396984925,6.789727532133032,13.583760138335315,-2.7939632587241325
5.226130653266332,7.31244160500998,16.80682041006429,-4.654742415497256
5.276381909547739,7.840206055402646,18.974440871428918,-6.328088270308324
5.326633165829146,8.373020883311032,19.950498634645218,-7.746619921939791
5.376884422110553,8.910886088735136,19.67369892798485,-8.853217115892123
5.42713567839196,9.453801671674963,18.161424303458194,-9.603320315355319
5.477386934673367,10.001767632130505,15.508643042036024,-9.966724987631798
5.527638190954774,10.55478397010177,11.881945306710636,-9.92879785517511
5.577889447236181,11.112850685588754,7.509081562866189,-9.491066136257665
5.628140703517588,11.675967778591453,2.6646602354126463,-8.671156048213652
5.678391959798995,12.244135249109874,-2.3470972344480137,-7.5020830495574735
5.728643216080402,12.817353097144014,-7.211460979642705,-6.030922400918649
5.778894472361809,13.395621322693877,-11.622957208965838,-4.316913577541386
5.8291457286432165,13.978939925759455,-15.304551442956292,-2.4290748632920693
5.8793969849246235,14.567308906340756,-18.025045809241135,-0.4434241797221656
5.9296482412060305,15.160728264437772,-19.613597876712404,1.5600819404661925
5.9798994974874375,15.75919800005051,-19.9704492703808,3.500767976677528
6.030150753768845,16.362718113178964,-19.073190328092974,5.300487995287738
6.080402010050252,16.97128860382314,-16.97816738929864,6.886772365201398
6.130653266331659,17.584909471983032,-13.816944340520031,8.195745904772831
6.180904522613066,18.203580717658646,-9.788040626465794,9.174699954574187
6.231155778894473,18.827302340849982,-5.1444645656749035,9.784214805920294
6.28140703517588,19.456074341557034,-0.17782485732032213,9.999747020961113
6.331658291457287,20.08989671977981,4.799981950408671,9.812617727454477
6.381909547738694,20.7287694755183,9.476358034426354,9.230362092385995
6.432160804020101,21.37269260877251,13.557634909743651,8.276425902122611
6.482412060301508,22.021666119542438,16.787515312140822,6.989221466958206
6.532663316582915,22.675690007828088,18.963168231573803,5.420580866102966
6.582914572864322,23.33476427362946,19.94796635551821,3.6336688165627455
6.633165829145729,23.998888916946548,19.68006603241934,1.7004392087710987
6.683417085427136,24.66806393777935,18.176290948096934,-0.30126227291513413
6.733668341708543,25.342289336127877,15.531075626815847,-2.2908327755849816
6.78391959798995,26.021565111992125,11.910535103362285,-4.1881579265160855
6.834170854271357,26.705891265372088,7.542033180660157,-5.916837812202884
6.884422110552764,27.395267796267774,2.6999043686513073,-7.407263386625791
6.934673366834171,28.089694704679175,-2.3117738575434124,-8.599419430508073
6.984924623115578,28.7891719906063,-7.178276607218368,-9.44530119432483
7.035175879396985,29.493699654049145,-11.593995763315654,-9.910847413690348
7.085427135678392,30.203277695007706,-15.281631653736365,-9.977311860065507
7.135678391959799,30.917906113481983,-18.00960700033282,-9.642018198320422
7.185929648241206,31.63758490947199,-19.60660957912458,-8.918467755174824
7.236180904522613,32.362314082977704,-19.972350337346874,-7.83579585898617
7.28643216080402,33.09209363399915,-19.08386137583249,-6.43759864254336
7.336683417085427,33.8269235625363,-16.99693829411607,-4.780177550196898
7.386934673366834,34.56680386858918,-13.84263632143616,-2.930272238054446
7.437185929648241,35.31173455215778,-9.819040270663473,-0.9623731569339937
7.4874371859296485,36.06171561324209,-5.17882514808675,1.0442779672475813
7.5376884422110555,36.81674705184213,-0.2133885916609745,3.0088789734858357
7.5879396984924625,37.576828867957886,4.765448406325063,4.8523209400042955
7.63819095477387,38.34196106158936,9.44502332858492,6.500373676618942
7.688442211055277,39.11214363273655,13.531466808514306,7.886674764390579
7.738693467336684,39.887376581399465,16.768157127888944,8.955401782398656
7.788944723618091,40.66765990757809,18.951835625430686,9.663520118628037
7.839195979899498,41.45299361127245,19.945370995924893,9.982515851986665
7.889447236180905,42.24337769248252,19.686370903555446,9.899543927200128
7.939698492462312,43.038812151208305,18.191100114750856,9.41794538883001
7.989949748743719,43.83929698744981,15.553459098444137,8.557112846866135
8.040201005025127,44.64483220120705,11.93908723591846,7.351709591212446
8.090452261306533,45.45541779247999,7.574960948656168,5.850273799116107
8.14070351758794,46.271053761268675,2.735139964115997,4.113264040155365
8.190954773869347,47.091740107573045,-2.276443170230807,2.2106247807692085
8.241206030150755,47.91747683139316,-7.145069535285607,0.21896991856912743
8.291457286432161,48.748263932728975,-11.564997654546794,-1.7815022424638185
8.341708542713569,49.584101411580534,-15.258663540169318,-3.710238350681948
8.391959798994975,50.42498926794778,-17.99411124053608,-5.489573662237396
8.442211055276383,51.27092750183078,-19.5995592805261,-7.047859380489648
8.492462311557789,52.12191611322946,-19.974188246738404,-8.322347750245973
8.542713567839197,52.97795510214391,-19.094472075622036,-9.261718732257815
8.592964824120603,53.83904446857403,-17.015655450357198,-9.828146515941128
8.643216080402011,54.70518421251991,-13.86828452846885,-9.998822657704023
8.693467336683417,55.57637433398146,-9.850008864596226,-9.766874512411444
8.743718592964825,56.45261483295879,-5.213169353756255,-9.14164197535198
8.793969849246231,57.333905709451784,-0.2489516512133071,-8.148301391090946
8.84422110552764,58.22024696346054,4.730899792699986,-6.826851773335479
8.894472361809045,59.11163859498498,9.413658755213747,-5.230504157868822
8.944723618090453,60.00808060402517,13.505255917397573,-3.4235389447512428
8.99497487437186,60.909572990581054,16.748745918524037,-1.4787175085537974
9.045226130653267,61.81611575465267,18.940443088836247,0.5256476962472325
9.095477386934673,62.72770889623999,19.942712564072465,2.508846556150494
9.145728643216081,63.644352415343064,19.69261352145559,4.39102126645323
9.195979899497488,64.56604631196183,18.20585175658954,6.096381979010982
9.246231155778895,65.49279058609633,15.575793386138832,7.556258644901961
9.296482412060302,66.42458523774653,11.967601614090338,8.711866162928137
9.34673366834171,67.36143026691246,7.607864762727975,9.516671489251403
9.396984924623116,68.3033256735941,2.7703669103831468,9.93826739135821
9.447236180904524,69.25027145779148,-2.2411052842346804,9.959677395585413
9.49748743718593,70.20226761950455,-7.111839868852972,9.580039381663163
9.547738693467338,71.15931415873338,-11.535962974358483,8.814640297857972
9.597989949748744,72.1214110754779,-15.235647174885985,7.694300598835374
9.648241206030152,73.08855836973815,-17.97855857885233,6.264133193186724
9.698492462311558,74.0607560415141,-19.592447003211742,4.5817268742912685
9.748743718592966,75.0380040908058,-19.975962992743433,2.714827382609743
9.798994974874372,76.02030251761319,-19.105022393908072,0.738609476468785
9.84924623115578,77.00765132193634,-17.03431879883346,-1.2673501426774765
9.899497487437186,78.00005050377516,-13.893888880512158,-3.222277158774947
9.949748743718594,78.99750006312973,-9.88094631033366,-5.047452194248315
10.0,80.0,-5.247497074078575,-6.669380616522619
